# Tau
 83.63333,  22.01444,  1.340,0,0,0, 200e6, -0.22, 0, 0, 0, 0
# Cyg
299.86667,  40.73389,  7.920,0,0,0, 200e6, -0.78, 0, 0, 0, 0
# Cas
350.86667,  58.81167, 11.900,0,0,0, 200e6, -0.41, 0, 0, 0, 0
# For A
50.67375, -37.20833,   0.528,0,0,0, 178e6, -0.51, 0, 0, 0, 0
# Pic A
79.95833, -45.77889,   0.390,0,0,0, 200e6, -0.99, 0, 0, 0, 0
# Her A
252.78333,   4.99250,   0.377,0,0,0, 200e6, -1.07, 0, 0, 0, 0

# Gleam sources > 10 Jy @ 200 Mhz
326.852051, -81.537109, 0.011210406000000001, 0.0, 0.0, 0.0, 200000000.0, -0.711668, 0.0, 0.0, 0.0, 0.0
329.2789, -69.688171, 0.084073415, 0.0, 0.0, 0.0, 200000000.0, -0.49907, 0.0, 0.0, 0.0, 0.0
329.45047, -69.69635, 0.016594705999999997, 0.0, 0.0, 0.0, 200000000.0, -0.693415, 0.0, 0.0, 0.0, 0.0
353.799377, -66.617363, 0.008864175, 0.0, 0.0, 0.0, 200000000.0, -0.668079, 0.0, 0.0, 0.0, 0.0
359.697662, -60.889553, 0.046077303, 0.0, 0.0, 0.0, 200000000.0, -0.614626, 0.0, 0.0, 0.0, 0.0
359.792572, -60.931488, 0.055877033, 0.0, 0.0, 0.0, 200000000.0, -0.677243, 0.0, 0.0, 0.0, 0.0
355.326813, -58.268333, 0.011063465000000001, 0.0, 0.0, 0.0, 200000000.0, -0.656029, 0.0, 0.0, 0.0, 0.0
350.528137, -54.756054, 0.008263102999999999, 0.0, 0.0, 0.0, 200000000.0, -0.739917, 0.0, 0.0, 0.0, 0.0
336.761261, -52.555393, 0.012383951, 0.0, 0.0, 0.0, 200000000.0, -0.851272, 0.0, 0.0, 0.0, 0.0
328.529968, -51.836227, 0.014022422000000001, 0.0, 0.0, 0.0, 200000000.0, -0.728967, 0.0, 0.0, 0.0, 0.0
344.197418, -51.976326, 0.009458271999999998, 0.0, 0.0, 0.0, 200000000.0, -0.628488, 0.0, 0.0, 0.0, 0.0
325.889191, -43.212704, 0.013432155, 0.0, 0.0, 0.0, 200000000.0, -0.799665, 0.0, 0.0, 0.0, 0.0
353.608856, -41.422459, 0.022215244, 0.0, 0.0, 0.0, 200000000.0, -0.703261, 0.0, 0.0, 0.0, 0.0
337.327637, -40.858551, 0.008907056000000002, 0.0, 0.0, 0.0, 200000000.0, -0.496327, 0.0, 0.0, 0.0, 0.0
343.264374, -40.962276, 0.020923633, 0.0, 0.0, 0.0, 200000000.0, -0.776778, 0.0, 0.0, 0.0, 0.0
351.642395, -40.454403, 0.011348646, 0.0, 0.0, 0.0, 200000000.0, -0.617886, 0.0, 0.0, 0.0, 0.0
337.445099, -38.399624, 0.011050922, 0.0, 0.0, 0.0, 200000000.0, -0.072936, 0.0, 0.0, 0.0, 0.0
345.599854, -37.301403, 0.009572384, 0.0, 0.0, 0.0, 200000000.0, -0.43872, 0.0, 0.0, 0.0, 0.0
359.255005, -34.758972, 0.016326697, 0.0, 0.0, 0.0, 200000000.0, -1.120121, 0.0, 0.0, 0.0, 0.0
319.543945, -30.320288, 0.009720024, 0.0, 0.0, 0.0, 200000000.0, -0.749828, 0.0, 0.0, 0.0, 0.0
315.40979, -28.005381, 0.013604956, 0.0, 0.0, 0.0, 200000000.0, -0.758778, 0.0, 0.0, 0.0, 0.0
308.319031, -22.887325, 0.009328351, 0.0, 0.0, 0.0, 200000000.0, -0.792854, 0.0, 0.0, 0.0, 0.0
349.984528, -27.459827, 0.01071022, 0.0, 0.0, 0.0, 200000000.0, -0.878314, 0.0, 0.0, 0.0, 0.0
316.843048, -25.432241, 0.025245507, 0.0, 0.0, 0.0, 200000000.0, -0.720895, 0.0, 0.0, 0.0, 0.0
316.852081, -25.498209, 0.011702555, 0.0, 0.0, 0.0, 200000000.0, -0.727907, 0.0, 0.0, 0.0, 0.0
314.017303, -19.942448, 0.010002535, 0.0, 0.0, 0.0, 200000000.0, -0.708755, 0.0, 0.0, 0.0, 0.0
319.151306, -20.929369, 0.012810942, 0.0, 0.0, 0.0, 200000000.0, -0.723692, 0.0, 0.0, 0.0, 0.0
322.756042, -20.616232, 0.009321386000000001, 0.0, 0.0, 0.0, 200000000.0, -0.745708, 0.0, 0.0, 0.0, 0.0
324.458435, -20.709461, 0.01065119, 0.0, 0.0, 0.0, 200000000.0, -0.103584, 0.0, 0.0, 0.0, 0.0
331.543671, -18.593218, 0.009688459, 0.0, 0.0, 0.0, 200000000.0, -0.347348, 0.0, 0.0, 0.0, 0.0
329.240021, -18.228876, 0.010519435, 0.0, 0.0, 0.0, 200000000.0, -0.899737, 0.0, 0.0, 0.0, 0.0
320.757385, -16.4657, 0.009700259000000001, 0.0, 0.0, 0.0, 200000000.0, -0.898217, 0.0, 0.0, 0.0, 0.0
333.606415, -17.027868, 0.057429786999999996, 0.0, 0.0, 0.0, 200000000.0, -0.983667, 0.0, 0.0, 0.0, 0.0
350.258972, -16.384098, 0.013730006, 0.0, 0.0, 0.0, 200000000.0, -0.69453, 0.0, 0.0, 0.0, 0.0
324.43338, -14.547894, 0.016459228, 0.0, 0.0, 0.0, 200000000.0, -0.782355, 0.0, 0.0, 0.0, 0.0
351.332489, -12.124376, 0.011591473000000001, 0.0, 0.0, 0.0, 200000000.0, -0.841624, 0.0, 0.0, 0.0, 0.0
336.446472, -4.949217, 0.014887486000000002, 0.0, 0.0, 0.0, 200000000.0, -0.576464, 0.0, 0.0, 0.0, 0.0
351.331482, -4.960043, 0.008024482000000001, 0.0, 0.0, 0.0, 200000000.0, -0.80993, 0.0, 0.0, 0.0, 0.0
351.725677, -2.037144, 0.0082988, 0.0, 0.0, 0.0, 200000000.0, -0.791646, 0.0, 0.0, 0.0, 0.0
335.959473, -2.107126, 0.014243542, 0.0, 0.0, 0.0, 200000000.0, -0.813446, 0.0, 0.0, 0.0, 0.0
1.549031, -83.099091, 0.00996102, 0.0, 0.0, 0.0, 200000000.0, -0.558563, 0.0, 0.0, 0.0, 0.0
98.946892, -75.271393, 0.009303077, 0.0, 0.0, 0.0, 200000000.0, -0.440392, 0.0, 0.0, 0.0, 0.0
30.556303, -76.335075, 0.013404951, 0.0, 0.0, 0.0, 200000000.0, -0.797128, 0.0, 0.0, 0.0, 0.0
62.203442, -75.121338, 0.05171992, 0.0, 0.0, 0.0, 200000000.0, -0.440807, 0.0, 0.0, 0.0, 0.0
115.887161, -67.44136, 0.009589153, 0.0, 0.0, 0.0, 200000000.0, -0.621406, 0.0, 0.0, 0.0, 0.0
17.928667, -68.999084, 0.009179999000000001, 0.0, 0.0, 0.0, 200000000.0, -0.806849, 0.0, 0.0, 0.0, 0.0
35.987503, -70.996986, 0.009212583, 0.0, 0.0, 0.0, 200000000.0, -0.766725, 0.0, 0.0, 0.0, 0.0
35.033432, -70.375481, 0.010332497999999999, 0.0, 0.0, 0.0, 200000000.0, -0.721922, 0.0, 0.0, 0.0, 0.0
43.191196, -71.076332, 0.015633277, 0.0, 0.0, 0.0, 200000000.0, 0.854305, 0.0, 0.0, 0.0, 0.0
4.010362, -63.168179, 0.010703695, 0.0, 0.0, 0.0, 200000000.0, -0.970398, 0.0, 0.0, 0.0, 0.0
104.556351, -65.747597, 0.009063492999999999, 0.0, 0.0, 0.0, 200000000.0, -0.783326, 0.0, 0.0, 0.0, 0.0
42.986488, -67.300362, 0.007719602, 0.0, 0.0, 0.0, 200000000.0, -0.919059, 0.0, 0.0, 0.0, 0.0
20.41972, -63.150974, 0.008339067, 0.0, 0.0, 0.0, 200000000.0, -0.838376, 0.0, 0.0, 0.0, 0.0
62.085506, -65.749672, 0.05179106, 0.0, 0.0, 0.0, 200000000.0, 0.692147, 0.0, 0.0, 0.0, 0.0
110.063362, -55.422562, 0.008401918, 0.0, 0.0, 0.0, 200000000.0, -0.86258, 0.0, 0.0, 0.0, 0.0
65.233665, -62.393787, 0.01518736, 0.0, 0.0, 0.0, 200000000.0, -0.601009, 0.0, 0.0, 0.0, 0.0
96.694405, -54.542625, 0.014996245, 0.0, 0.0, 0.0, 200000000.0, -0.889368, 0.0, 0.0, 0.0, 0.0
96.59478, -53.690434, 0.034699993, 0.0, 0.0, 0.0, 200000000.0, -1.015471, 0.0, 0.0, 0.0, 0.0
41.73431, -55.687901, 0.014053630000000001, 0.0, 0.0, 0.0, 200000000.0, -0.873175, 0.0, 0.0, 0.0, 0.0
95.41925, -52.6861, 0.011061930000000001, 0.0, 0.0, 0.0, 200000000.0, -0.826277, 0.0, 0.0, 0.0, 0.0
63.199623, -56.012024, 0.010054221, 0.0, 0.0, 0.0, 200000000.0, -0.684563, 0.0, 0.0, 0.0, 0.0
2.627115, -44.383228, 0.010809772, 0.0, 0.0, 0.0, 200000000.0, -0.949747, 0.0, 0.0, 0.0, 0.0
67.27935, -53.822166, 0.013946023, 0.0, 0.0, 0.0, 200000000.0, -0.624594, 0.0, 0.0, 0.0, 0.0
10.538418, -44.234619, 0.015064408000000001, 0.0, 0.0, 0.0, 200000000.0, -0.688625, 0.0, 0.0, 0.0, 0.0
40.935593, -51.208698, 0.01246505, 0.0, 0.0, 0.0, 200000000.0, -0.956139, 0.0, 0.0, 0.0, 0.0
12.71699, -44.478111, 0.008162165999999998, 0.0, 0.0, 0.0, 200000000.0, -0.728399, 0.0, 0.0, 0.0, 0.0
84.057755, -49.738922, 0.009641945, 0.0, 0.0, 0.0, 200000000.0, -0.799096, 0.0, 0.0, 0.0, 0.0
16.338017, -45.091045, 0.016201698, 0.0, 0.0, 0.0, 200000000.0, -0.901832, 0.0, 0.0, 0.0, 0.0
13.061183, -43.108032, 0.011611105, 0.0, 0.0, 0.0, 200000000.0, -0.769101, 0.0, 0.0, 0.0, 0.0
11.567042, -42.127586, 0.024994094, 0.0, 0.0, 0.0, 200000000.0, -0.721482, 0.0, 0.0, 0.0, 0.0
34.188782, -47.81168, 0.008676519, 0.0, 0.0, 0.0, 200000000.0, -0.778126, 0.0, 0.0, 0.0, 0.0
78.212357, -48.399612, 0.013184340000000001, 0.0, 0.0, 0.0, 200000000.0, -0.857026, 0.0, 0.0, 0.0, 0.0
9.611779, -38.997051, 0.008774027, 0.0, 0.0, 0.0, 200000000.0, -0.903129, 0.0, 0.0, 0.0, 0.0
102.048637, -39.95126, 0.010249059000000001, 0.0, 0.0, 0.0, 200000000.0, -0.907691, 0.0, 0.0, 0.0, 0.0
50.34763, -45.172649, 0.011779149000000001, 0.0, 0.0, 0.0, 200000000.0, -0.859337, 0.0, 0.0, 0.0, 0.0
109.275177, -36.361217, 0.009654523, 0.0, 0.0, 0.0, 200000000.0, -0.810189, 0.0, 0.0, 0.0, 0.0
87.350533, -40.852825, 0.012059607, 0.0, 0.0, 0.0, 200000000.0, -0.809864, 0.0, 0.0, 0.0, 0.0
23.548635, -36.487156, 0.01517691, 0.0, 0.0, 0.0, 200000000.0, -0.724417, 0.0, 0.0, 0.0, 0.0
23.384743, -36.480556, 0.011192682, 0.0, 0.0, 0.0, 200000000.0, -0.700437, 0.0, 0.0, 0.0, 0.0
96.780914, -35.485802, 0.013694252, 0.0, 0.0, 0.0, 200000000.0, -0.730916, 0.0, 0.0, 0.0, 0.0
6.125636, -29.479946, 0.012601302, 0.0, 0.0, 0.0, 200000000.0, -0.857146, 0.0, 0.0, 0.0, 0.0
80.741081, -36.457577, 0.047159635000000005, 0.0, 0.0, 0.0, 200000000.0, -0.617418, 0.0, 0.0, 0.0, 0.0
67.420143, -36.514114, 0.013542338000000001, 0.0, 0.0, 0.0, 200000000.0, -0.875704, 0.0, 0.0, 0.0, 0.0
6.454782, -26.036501, 0.017121948, 0.0, 0.0, 0.0, 200000000.0, 0.049701, 0.0, 0.0, 0.0, 0.0
54.694252, -35.377464, 0.008037966, 0.0, 0.0, 0.0, 200000000.0, -0.8262, 0.0, 0.0, 0.0, 0.0
56.630573, -34.377254, 0.013661819, 0.0, 0.0, 0.0, 200000000.0, -0.747799, 0.0, 0.0, 0.0, 0.0
30.050053, -30.890074, 0.01392395, 0.0, 0.0, 0.0, 200000000.0, -0.862534, 0.0, 0.0, 0.0, 0.0
27.648842, -29.532959, 0.013244218, 0.0, 0.0, 0.0, 200000000.0, -0.802196, 0.0, 0.0, 0.0, 0.0
22.615608, -26.165581, 0.00909892, 0.0, 0.0, 0.0, 200000000.0, -0.892923, 0.0, 0.0, 0.0, 0.0
74.610214, -30.121391, 0.010256362, 0.0, 0.0, 0.0, 200000000.0, -0.798303, 0.0, 0.0, 0.0, 0.0
73.809814, -30.112801, 0.013768454000000001, 0.0, 0.0, 0.0, 200000000.0, -0.781251, 0.0, 0.0, 0.0, 0.0
0.841941, -17.452429, 0.008831516000000001, 0.0, 0.0, 0.0, 200000000.0, -0.675206, 0.0, 0.0, 0.0, 0.0
8.786017, -20.065029, 0.010184667, 0.0, 0.0, 0.0, 200000000.0, -0.710628, 0.0, 0.0, 0.0, 0.0
15.671034, -21.874184, 0.007204848000000001, 0.0, 0.0, 0.0, 200000000.0, -1.322923, 0.0, 0.0, 0.0, 0.0
71.155449, -28.163597, 0.030477767, 0.0, 0.0, 0.0, 200000000.0, -0.762163, 0.0, 0.0, 0.0, 0.0
57.91732, -27.731697, 0.016258155, 0.0, 0.0, 0.0, 200000000.0, -0.803922, 0.0, 0.0, 0.0, 0.0
19.213554, -20.86725, 0.012886589, 0.0, 0.0, 0.0, 200000000.0, -0.097628, 0.0, 0.0, 0.0, 0.0
99.13871, -20.707205, 0.011159153, 0.0, 0.0, 0.0, 200000000.0, -0.768209, 0.0, 0.0, 0.0, 0.0
99.133301, -20.623714, 0.008751973, 0.0, 0.0, 0.0, 200000000.0, -0.680715, 0.0, 0.0, 0.0, 0.0
36.261047, -23.21224, 0.008100685, 0.0, 0.0, 0.0, 200000000.0, -0.776594, 0.0, 0.0, 0.0, 0.0
44.061962, -23.413267, 0.010472466000000001, 0.0, 0.0, 0.0, 200000000.0, -0.989925, 0.0, 0.0, 0.0, 0.0
14.777601, -17.009401, 0.009960805000000001, 0.0, 0.0, 0.0, 200000000.0, -0.787619, 0.0, 0.0, 0.0, 0.0
91.642105, -20.36594, 0.009415900000000001, 0.0, 0.0, 0.0, 200000000.0, -0.581057, 0.0, 0.0, 0.0, 0.0
4.713638, -12.709835, 0.009610901, 0.0, 0.0, 0.0, 200000000.0, -0.627058, 0.0, 0.0, 0.0, 0.0
74.043907, -21.989466, 0.008013396, 0.0, 0.0, 0.0, 200000000.0, -0.784557, 0.0, 0.0, 0.0, 0.0
17.070896, -16.071735, 0.019190870000000002, 0.0, 0.0, 0.0, 200000000.0, -0.773836, 0.0, 0.0, 0.0, 0.0
80.413025, -20.793682, 0.010731022, 0.0, 0.0, 0.0, 200000000.0, -0.615452, 0.0, 0.0, 0.0, 0.0
73.849167, -20.570438, 0.013125207, 0.0, 0.0, 0.0, 200000000.0, -0.600496, 0.0, 0.0, 0.0, 0.0
39.431751, -19.542252, 0.018408206, 0.0, 0.0, 0.0, 200000000.0, -0.709581, 0.0, 0.0, 0.0, 0.0
64.017929, -20.941076, 0.009604557, 0.0, 0.0, 0.0, 200000000.0, -0.719948, 0.0, 0.0, 0.0, 0.0
20.1126, -15.336476, 0.017469313, 0.0, 0.0, 0.0, 200000000.0, -0.62271, 0.0, 0.0, 0.0, 0.0
77.6353, -18.645319, 0.012504461, 0.0, 0.0, 0.0, 200000000.0, -1.299108, 0.0, 0.0, 0.0, 0.0
21.875265, -14.04848, 0.011152834, 0.0, 0.0, 0.0, 200000000.0, -0.753229, 0.0, 0.0, 0.0, 0.0
10.377735, -9.372575, 0.007766754, 0.0, 0.0, 0.0, 200000000.0, -1.608439, 0.0, 0.0, 0.0, 0.0
60.068924, -16.169765, 0.008312864, 0.0, 0.0, 0.0, 200000000.0, -0.89105, 0.0, 0.0, 0.0, 0.0
33.903378, -12.991464, 0.017164812, 0.0, 0.0, 0.0, 200000000.0, -0.771234, 0.0, 0.0, 0.0, 0.0
48.19339, -14.83059, 0.009028098, 0.0, 0.0, 0.0, 200000000.0, -0.686681, 0.0, 0.0, 0.0, 0.0
57.871532, -14.489774, 0.017535349000000002, 0.0, 0.0, 0.0, 200000000.0, -0.970015, 0.0, 0.0, 0.0, 0.0
61.95208, -12.193125, 0.012107472, 0.0, 0.0, 0.0, 200000000.0, -0.948806, 0.0, 0.0, 0.0, 0.0
1.593615, -0.073728, 0.013250844000000001, 0.0, 0.0, 0.0, 200000000.0, -0.654223, 0.0, 0.0, 0.0, 0.0
13.534744, -3.565099, 0.009694254000000001, 0.0, 0.0, 0.0, 200000000.0, -0.511212, 0.0, 0.0, 0.0, 0.0
9.584585, -2.127093, 0.022636642, 0.0, 0.0, 0.0, 200000000.0, -0.713328, 0.0, 0.0, 0.0, 0.0
9.266866, -1.152862, 0.015537731, 0.0, 0.0, 0.0, 200000000.0, -0.82426, 0.0, 0.0, 0.0, 0.0
14.394592, -1.391537, 0.015522531000000001, 0.0, 0.0, 0.0, 200000000.0, -0.641443, 0.0, 0.0, 0.0, 0.0
58.132305, -7.184256, 0.01563342, 0.0, 0.0, 0.0, 200000000.0, -0.840026, 0.0, 0.0, 0.0, 0.0
35.225224, -1.948561, 0.018084622, 0.0, 0.0, 0.0, 200000000.0, -0.781082, 0.0, 0.0, 0.0, 0.0
85.424133, -1.89203, 0.016856617, 0.0, 0.0, 0.0, 200000000.0, 1.755096, 0.0, 0.0, 0.0, 0.0
19.576754, 2.96876, 0.008379096, 0.0, 0.0, 0.0, 200000000.0, -0.932012, 0.0, 0.0, 0.0, 0.0
53.561089, -1.189405, 0.017944165, 0.0, 0.0, 0.0, 200000000.0, -1.010792, 0.0, 0.0, 0.0, 0.0
40.668743, -0.011535, 0.015353792, 0.0, 0.0, 0.0, 200000000.0, -0.51065, 0.0, 0.0, 0.0, 0.0
63.094513, -0.991809, 0.009302256, 0.0, 0.0, 0.0, 200000000.0, -0.827369, 0.0, 0.0, 0.0, 0.0
78.53257, 0.941149, 0.009784900000000001, 0.0, 0.0, 0.0, 200000000.0, -0.735862, 0.0, 0.0, 0.0, 0.0
45.408478, 1.9216, 0.007792812, 0.0, 0.0, 0.0, 200000000.0, -1.231193, 0.0, 0.0, 0.0, 0.0
22.839617, 6.394161, 0.008362115, 0.0, 0.0, 0.0, 200000000.0, -0.945976, 0.0, 0.0, 0.0, 0.0
51.959526, 2.554454, 0.00803163, 0.0, 0.0, 0.0, 200000000.0, -0.64012, 0.0, 0.0, 0.0, 0.0
10.209675, 10.056921, 0.01533395, 0.0, 0.0, 0.0, 200000000.0, -0.753723, 0.0, 0.0, 0.0, 0.0
47.109253, 4.111432, 0.017559288, 0.0, 0.0, 0.0, 200000000.0, -0.594877, 0.0, 0.0, 0.0, 0.0
61.853275, 3.680325, 0.011935504, 0.0, 0.0, 0.0, 200000000.0, -0.521862, 0.0, 0.0, 0.0, 0.0
55.875381, 4.962468, 0.011913326, 0.0, 0.0, 0.0, 200000000.0, -0.785428, 0.0, 0.0, 0.0, 0.0
82.871452, 6.507895, 0.015523208, 0.0, 0.0, 0.0, 200000000.0, -0.849209, 0.0, 0.0, 0.0, 0.0
44.412323, 6.064645, 0.009153057000000001, 0.0, 0.0, 0.0, 200000000.0, -0.754753, 0.0, 0.0, 0.0, 0.0
44.452709, 6.033635, 0.010809849, 0.0, 0.0, 0.0, 200000000.0, -0.659773, 0.0, 0.0, 0.0, 0.0
57.442795, 5.860472, 0.009417025, 0.0, 0.0, 0.0, 200000000.0, -0.489296, 0.0, 0.0, 0.0, 0.0
9.436501, 13.331506, 0.008597438, 0.0, 0.0, 0.0, 200000000.0, -0.893177, 0.0, 0.0, 0.0, 0.0
35.500702, 8.447247, 0.009530383, 0.0, 0.0, 0.0, 200000000.0, -0.682809, 0.0, 0.0, 0.0, 0.0
5.104468, 15.680852, 0.012353777, 0.0, 0.0, 0.0, 200000000.0, -0.982722, 0.0, 0.0, 0.0, 0.0
17.211702, 13.309432, 0.029311057, 0.0, 0.0, 0.0, 200000000.0, -0.667319, 0.0, 0.0, 0.0, 0.0
17.232773, 13.363942, 0.015929864000000002, 0.0, 0.0, 0.0, 200000000.0, -0.779831, 0.0, 0.0, 0.0, 0.0
59.739212, 10.45061, 0.024044671, 0.0, 0.0, 0.0, 200000000.0, -0.722893, 0.0, 0.0, 0.0, 0.0
59.716679, 10.401216, 0.015766864000000002, 0.0, 0.0, 0.0, 200000000.0, -0.618842, 0.0, 0.0, 0.0, 0.0
63.419235, 11.202598, 0.017787064999999998, 0.0, 0.0, 0.0, 200000000.0, -0.799196, 0.0, 0.0, 0.0, 0.0
9.026484, 18.632029, 0.008918854, 0.0, 0.0, 0.0, 200000000.0, -0.845146, 0.0, 0.0, 0.0, 0.0
45.812237, 16.436142, 0.008908772, 0.0, 0.0, 0.0, 200000000.0, -0.600284, 0.0, 0.0, 0.0, 0.0
47.501095, 17.098303, 0.022166284999999997, 0.0, 0.0, 0.0, 200000000.0, -0.842957, 0.0, 0.0, 0.0, 0.0
24.09897, 20.951857, 0.022760991, 0.0, 0.0, 0.0, 200000000.0, -0.991973, 0.0, 0.0, 0.0, 0.0
22.498671, 23.638184, 0.009966540000000001, 0.0, 0.0, 0.0, 200000000.0, -0.598474, 0.0, 0.0, 0.0, 0.0
13.959011, 26.41007, 0.013838095, 0.0, 0.0, 0.0, 200000000.0, -1.077664, 0.0, 0.0, 0.0, 0.0
74.179344, 22.822132, 0.011359184000000001, 0.0, 0.0, 0.0, 200000000.0, -0.653777, 0.0, 0.0, 0.0, 0.0
22.125807, 29.049181, 0.01024625, 0.0, 0.0, 0.0, 200000000.0, -0.75655, 0.0, 0.0, 0.0, 0.0
36.051018, 27.836069, 0.009050490999999999, 0.0, 0.0, 0.0, 200000000.0, -0.624126, 0.0, 0.0, 0.0, 0.0
29.298252, 28.859756, 0.014811708, 0.0, 0.0, 0.0, 200000000.0, -1.007806, 0.0, 0.0, 0.0, 0.0
31.767782, 29.51646, 0.008466835, 0.0, 0.0, 0.0, 200000000.0, -0.814716, 0.0, 0.0, 0.0, 0.0
38.897369, 29.1497, 0.007987147, 0.0, 0.0, 0.0, 200000000.0, -0.948723, 0.0, 0.0, 0.0, 0.0
69.269493, 29.669428, 0.184806078, 0.0, 0.0, 0.0, 200000000.0, -0.661402, 0.0, 0.0, 0.0, 0.0
130.357147, -75.675858, 0.019008295, 0.0, 0.0, 0.0, 200000000.0, -0.73357, 0.0, 0.0, 0.0, 0.0
261.359863, -80.080894, 0.009853259, 0.0, 0.0, 0.0, 200000000.0, -0.594226, 0.0, 0.0, 0.0, 0.0
238.837967, -79.677078, 0.014748813999999999, 0.0, 0.0, 0.0, 200000000.0, -0.435146, 0.0, 0.0, 0.0, 0.0
308.467987, -73.068123, 0.008104077999999999, 0.0, 0.0, 0.0, 200000000.0, -1.060354, 0.0, 0.0, 0.0, 0.0
251.071594, -77.259148, 0.021567694, 0.0, 0.0, 0.0, 200000000.0, -0.478868, 0.0, 0.0, 0.0, 0.0
236.529465, -73.180046, 0.009792846000000001, 0.0, 0.0, 0.0, 200000000.0, -0.821902, 0.0, 0.0, 0.0, 0.0
311.337128, -60.317394, 0.018838318, 0.0, 0.0, 0.0, 200000000.0, -0.986987, 0.0, 0.0, 0.0, 0.0
249.544037, -68.236588, 0.009476687000000001, 0.0, 0.0, 0.0, 200000000.0, -0.845313, 0.0, 0.0, 0.0, 0.0
279.250977, -66.819252, 0.008103571, 0.0, 0.0, 0.0, 200000000.0, -0.682536, 0.0, 0.0, 0.0, 0.0
275.568054, -63.987694, 0.01868102, 0.0, 0.0, 0.0, 200000000.0, -1.007528, 0.0, 0.0, 0.0, 0.0
306.086395, -57.393673, 0.014427408000000001, 0.0, 0.0, 0.0, 200000000.0, -0.930473, 0.0, 0.0, 0.0, 0.0
274.8974, -63.762897, 0.036591943, 0.0, 0.0, 0.0, 200000000.0, 0.1477, 0.0, 0.0, 0.0, 0.0
294.385742, -58.640713, 0.012970165, 0.0, 0.0, 0.0, 200000000.0, -0.847502, 0.0, 0.0, 0.0, 0.0
265.509216, -60.922138, 0.012447281000000001, 0.0, 0.0, 0.0, 200000000.0, -0.913795, 0.0, 0.0, 0.0, 0.0
299.571533, -55.15963, 0.019727756, 0.0, 0.0, 0.0, 200000000.0, -0.918594, 0.0, 0.0, 0.0, 0.0
257.62439, -60.687809, 0.008546237, 0.0, 0.0, 0.0, 200000000.0, -0.860612, 0.0, 0.0, 0.0, 0.0
269.778046, -59.781944, 0.022620904, 0.0, 0.0, 0.0, 200000000.0, -1.006825, 0.0, 0.0, 0.0, 0.0
290.470581, -54.530201, 0.00980376, 0.0, 0.0, 0.0, 200000000.0, -1.366931, 0.0, 0.0, 0.0, 0.0
264.428375, -56.54517, 0.020302826, 0.0, 0.0, 0.0, 200000000.0, -0.782722, 0.0, 0.0, 0.0, 0.0
264.348785, -56.602882, 0.009998851999999999, 0.0, 0.0, 0.0, 200000000.0, -0.946743, 0.0, 0.0, 0.0, 0.0
274.528992, -51.967064, 0.022639327, 0.0, 0.0, 0.0, 200000000.0, -0.484536, 0.0, 0.0, 0.0, 0.0
302.591583, -56.487511, 0.00796679, 0.0, 0.0, 0.0, 200000000.0, -1.222075, 0.0, 0.0, 0.0, 0.0
293.988464, -46.344551, 0.056213244, 0.0, 0.0, 0.0, 200000000.0, -0.908402, 0.0, 0.0, 0.0, 0.0
280.815887, -48.610794, 0.014763988, 0.0, 0.0, 0.0, 200000000.0, -0.994971, 0.0, 0.0, 0.0, 0.0
313.072296, -36.675755, 0.008850485000000002, 0.0, 0.0, 0.0, 200000000.0, -0.651422, 0.0, 0.0, 0.0, 0.0
299.313446, -42.371689, 0.014602026, 0.0, 0.0, 0.0, 200000000.0, -0.753061, 0.0, 0.0, 0.0, 0.0
308.948456, -34.901047, 0.022139535, 0.0, 0.0, 0.0, 200000000.0, -0.759376, 0.0, 0.0, 0.0, 0.0
293.3479, -39.673317, 0.008445935, 0.0, 0.0, 0.0, 200000000.0, -0.805024, 0.0, 0.0, 0.0, 0.0
281.118866, -40.365078, 0.013430144, 0.0, 0.0, 0.0, 200000000.0, -0.948436, 0.0, 0.0, 0.0, 0.0
275.14682, -39.156971, 0.014365225, 0.0, 0.0, 0.0, 200000000.0, -0.924756, 0.0, 0.0, 0.0, 0.0
277.747101, -36.041451, 0.030668138, 0.0, 0.0, 0.0, 200000000.0, 0.264884, 0.0, 0.0, 0.0, 0.0
284.294922, -30.327879, 0.007825554, 0.0, 0.0, 0.0, 200000000.0, -0.906871, 0.0, 0.0, 0.0, 0.0
288.950043, -26.882534, 0.011850778000000001, 0.0, 0.0, 0.0, 200000000.0, -0.996292, 0.0, 0.0, 0.0, 0.0
285.70575, -23.497133, 0.018378149, 0.0, 0.0, 0.0, 200000000.0, -0.886103, 0.0, 0.0, 0.0, 0.0
307.03183, -15.354539, 0.008538263, 0.0, 0.0, 0.0, 200000000.0, -0.992149, 0.0, 0.0, 0.0, 0.0
295.314087, -15.40795, 0.021564517, 0.0, 0.0, 0.0, 200000000.0, -0.629551, 0.0, 0.0, 0.0, 0.0
292.50592, -15.152169, 0.008855065, 0.0, 0.0, 0.0, 200000000.0, -1.099342, 0.0, 0.0, 0.0, 0.0
299.047272, -7.614375, 0.009443031, 0.0, 0.0, 0.0, 200000000.0, -0.898842, 0.0, 0.0, 0.0, 0.0
290.879456, -7.693943, 0.00885741, 0.0, 0.0, 0.0, 200000000.0, -0.836012, 0.0, 0.0, 0.0, 0.0
322.275024, 7.551252, 0.010752997, 0.0, 0.0, 0.0, 200000000.0, -0.910288, 0.0, 0.0, 0.0, 0.0
298.064453, 2.509153, 0.021375048, 0.0, 0.0, 0.0, 200000000.0, -0.878027, 0.0, 0.0, 0.0, 0.0
312.0513, 7.024272, 0.011437471000000001, 0.0, 0.0, 0.0, 200000000.0, -0.946811, 0.0, 0.0, 0.0, 0.0
326.855652, 15.342155, 0.010693405000000001, 0.0, 0.0, 0.0, 200000000.0, -0.678811, 0.0, 0.0, 0.0, 0.0
305.536194, 10.020949, 0.013681467, 0.0, 0.0, 0.0, 200000000.0, -0.822857, 0.0, 0.0, 0.0, 0.0
320.692169, 17.076893, 0.00933869, 0.0, 0.0, 0.0, 200000000.0, -0.875822, 0.0, 0.0, 0.0, 0.0
326.048096, 28.173462, 0.001, 0.0, 0.0, 0.0, 200000000.0, 0.8, 0.0, 0.0, 0.0, 0.0
